FirstN,LastN,Extension,Recieved,Recieved_Known,Outbound,Outbound_Known,Missed_No_VM,Missed_VM,Missed_Known,Calling_Number,Called_Number,Start_Time,End_Time,Talk_Time_Seconds,Hold_Time_Seconds
Joni,Creasman,7200,,,x,,,,,7247,7200,"2017-12-28 12:31:03","2017-12-28 12:31:14",11,0
Joni,Creasman,7200,,,,,x,,,N/A,7200,"2017-12-28 15:23:17","2017-12-28 15:23:22",5,0
Joni,Creasman,7200,,,x,,,,,7200,6507612,"2017-12-28 14:48:57","2017-12-28 14:49:29",32,0
Joni,Creasman,7200,,,x,,,,,7200,2444789,"2017-12-28 13:22:31","2017-12-28 13:24:25",114,0
Joni,Creasman,7200,,,x,,,,,7200,6507612,"2017-12-28 16:53:14","2017-12-28 16:53:41",27,0
Joni,Creasman,7200,x,,,,,,,9186878485,7200,"2017-12-28 19:13:59","2017-12-28 19:15:12",73,0
Joni,Creasman,7200,,,,,x,,,8175732605,7200,"2017-12-28 14:49:54","2017-12-28 14:50:07",13,0
Joni,Creasman,7200,,,,,x,,x,9182566411,7200,"2017-12-28 14:17:52","2017-12-28 14:18:05",13,0
Joni,Creasman,7200,,,x,,,,,7200,6507612,"2017-12-28 16:19:02","2017-12-28 16:19:26",24,0
Joni,Creasman,7200,,,x,,,,,7200,2443117,"2017-12-28 16:01:42","2017-12-28 16:01:42",0,0
Joni,Creasman,7200,,,,,x,,,4236506778,7200,"2017-12-28 16:55:39","2017-12-28 16:55:45",6,0
Joni,Creasman,7200,,,x,,,,,7200,3094726,"2017-12-28 16:42:20","2017-12-28 16:44:05",105,0
Joni,Creasman,7200,,,x,,,,,7200,4768544,"2017-12-28 12:30:49","2017-12-28 12:30:52",3,0
Joni,Creasman,7200,,,,,x,,,4236507612,7200,"2017-12-28 16:40:00","2017-12-28 16:40:05",5,0
Joni,Creasman,7200,,,,,x,,,9365202152,7200,"2017-12-28 14:35:08","2017-12-28 14:35:24",16,0
Joni,Creasman,7200,,,,,x,,,4239616582,7200,"2017-12-28 19:42:09","2017-12-28 19:42:23",14,0
Joni,Creasman,7200,,,x,,,,,7200,6507612,"2017-12-28 16:01:45","2017-12-28 16:02:26",41,0
Joni,Creasman,7200,,,,,x,,,4236507612,7200,"2017-12-28 16:55:42","2017-12-28 16:55:47",5,0
Joni,Creasman,7200,,,x,,,,,7200,19722421908,"2017-12-28 16:44:43","2017-12-28 16:47:58",195,0
Tama,Rains,7206,x,,,,,,,4234572129,7206,"2017-12-28 15:45:08","2017-12-28 15:46:14",66,0
Vickie,Hines,7215,,,x,,,,,7215,4726548,"2017-12-28 15:43:37","2017-12-28 15:44:44",67,0
Tamra,Ford,7218,,,,,x,,,5186363769,7218,"2017-12-28 15:37:57","2017-12-28 15:38:13",16,0
Tamra,Ford,7218,,,,,x,,,5184653374,7218,"2017-12-28 16:01:21","2017-12-28 16:01:40",19,0
April,Fowler,7240,,,x,,,,,7240,2096070,"2017-12-28 13:11:36","2017-12-28 13:12:35",59,0
KELLI,DAVIS,7247,,,,,x,,,6019396288,7247,"2017-12-28 17:57:07","2017-12-28 17:58:41",94,0
KELLI,DAVIS,7247,,,x,,,,,7247,7200,"2017-12-28 12:31:03","2017-12-28 12:31:14",11,0
KELLI,DAVIS,7247,,,,,x,,x,6019479955,7247,"2017-12-28 16:38:36","2017-12-28 16:39:08",32,0
KELLI,DAVIS,7247,,,,,x,,,6019396288,7247,"2017-12-28 17:59:05","2017-12-28 18:00:21",76,0
KELLI,DAVIS,7247,,,,,x,,,4023976100,7247,"2017-12-28 16:27:15","2017-12-28 16:27:32",17,0
KELLI,DAVIS,7247,,,,,x,,,6019396288,7247,"2017-12-28 17:54:46","2017-12-28 17:56:37",111,0
KELLI,DAVIS,7247,,,,,x,,,6019396288,7247,"2017-12-28 18:29:48","2017-12-28 18:30:01",13,0
KELLI,DAVIS,7247,,,x,,,,,7247,Angie_forward,"2017-12-28 12:31:03","2017-12-28 12:31:14",11,0
KELLI,DAVIS,7247,,,,,x,,,4023976100,7247,"2017-12-28 15:12:34","2017-12-28 15:13:17",43,0
KELLI,DAVIS,7247,,,,,x,,,7637673675,7247,"2017-12-28 15:53:28","2017-12-28 15:55:19",111,0
Janet,Manoski,7255,,,,,x,,,2153280991,7255,"2017-12-28 19:57:38","2017-12-28 19:58:13",35,0
Janet,Manoski,7255,,,x,,,,,000BEA8163AA,7255,"2017-12-28 15:23:01","2017-12-28 15:23:28",27,0
Sheila,Hicks,7276,,,,,x,,,5195426560,7276,"2017-12-28 20:01:50","2017-12-28 20:02:09",19,0
Sheila,Hicks,7276,x,,,,,,,7059493254,7276,"2017-12-28 18:55:32","2017-12-28 18:56:35",63,0
Sheila,Hicks,7276,,,,,x,,,6362208546,7276,"2017-12-28 18:46:06","2017-12-28 18:46:33",27,0
Sheila,Hicks,7276,,,,,x,,,5192719522,7276,"2017-12-28 19:19:26","2017-12-28 19:19:50",24,0
Sheila,Hicks,7276,,,x,,,,,7276,18009875521,"2017-12-28 13:37:52","2017-12-28 13:40:23",151,0
Sheila,Hicks,7276,,,,,x,,,8153134598,7276,"2017-12-28 17:57:44","2017-12-28 17:58:01",17,0
Tina,Malek,7306,,,x,,,,,7306,7167158,"2017-12-28 16:54:13","2017-12-28 17:07:29",796,0
Tina,Malek,7306,,,x,,,,,7306,5035778,"2017-12-28 20:37:41","2017-12-28 20:39:48",127,0
Todd,Cherry,7312,,,,,x,,x,8604741292,7312,"2017-12-28 17:39:56","2017-12-28 17:40:47",51,0
Amanda,Payne,7314,x,,,,,,,2762368430,7314,"2017-12-28 18:02:58","2017-12-28 18:03:46",48,0
Amanda,Payne,7314,x,,,,,,,2762368430,7314,"2017-12-28 14:15:15","2017-12-28 14:15:50",35,0
Amanda,Payne,7314,,,,,x,,x,7653622900,7314,"2017-12-28 20:19:52","2017-12-28 20:20:44",52,0
Amanda,Payne,7314,,,,,x,,,3057679282,7314,"2017-12-28 18:49:47","2017-12-28 18:50:22",35,0
Amanda,Payne,7314,,,,,x,,,3057679282,7314,"2017-12-28 19:38:28","2017-12-28 19:39:06",38,0
Amanda,Payne,7314,,,,,x,,,2762362151,7314,"2017-12-28 15:25:16","2017-12-28 15:25:40",24,0
Amanda,Payne,7314,,,,,x,,,2762362151,7314,"2017-12-28 18:00:59","2017-12-28 18:01:53",54,0
Amanda,Payne,7314,,,,,x,,,5717750357,7314,"2017-12-28 18:55:08","2017-12-28 18:56:16",68,0
Amanda,Payne,7314,x,,,,,,,2762368430,7314,"2017-12-28 14:11:20","2017-12-28 14:11:55",35,0
Tonya,Knox,7330,,,,,x,,x,5738885157,7330,"2017-12-28 20:28:12","2017-12-28 20:28:33",21,0
Kandi,Cole,7331,,,,,,,,7331,7331,"2017-12-28 19:16:39","2017-12-28 19:16:55",16,0
Kandi,Cole,7331,,,,,,,,7331,7331,"2017-12-28 16:41:31","2017-12-28 16:41:42",11,0
Kandi,Cole,7331,,,,,,,,7331,7331,"2017-12-28 19:13:43","2017-12-28 19:14:07",24,0
Kandi,Cole,7331,,,,,x,,x,3347933045,7331,"2017-12-28 16:02:53","2017-12-28 16:03:57",64,0
Kandi,Cole,7331,,,,,,,,7331,7331,"2017-12-28 19:23:42","2017-12-28 19:24:04",22,0
Kandi,Cole,7331,,,,,,,,7331,7331,"2017-12-28 18:28:05","2017-12-28 18:28:24",19,0
Kandi,Cole,7331,,,,,,,,7331,7331,"2017-12-28 16:41:45","2017-12-28 16:41:47",2,0
Kandi,Cole,7331,,,,,,,,7331,7331,"2017-12-28 19:10:56","2017-12-28 19:11:28",32,0
Kandi,Cole,7331,,,,,x,,x,9018378292,7331,"2017-12-28 17:25:59","2017-12-28 17:27:09",70,0
Kandi,Cole,7331,,,x,x,,,,7331,19318363111,"2017-12-28 19:16:55","2017-12-28 19:22:51",356,0
Kandi,Cole,7331,,,,,x,,x,9318363111,7331,"2017-12-28 18:20:02","2017-12-28 18:21:15",73,0
Kandi,Cole,7331,,,x,,,,,7331,12512467798,"2017-12-28 19:14:56","2017-12-28 19:16:03",67,0
Kandi,Cole,7331,,,,,,,,7331,7331,"2017-12-28 19:11:28","2017-12-28 19:12:00",32,0
Kandi,Cole,7331,,,,,x,,,9317225324,7331,"2017-12-28 16:21:17","2017-12-28 16:22:16",59,0
Kandi,Cole,7331,x,,,,,,,7316357014,7331,"2017-12-28 17:26:36","2017-12-28 17:27:14",38,0
Kandi,Cole,7331,,,,,,,,7331,7331,"2017-12-28 19:23:26","2017-12-28 19:23:40",14,0
Kandi,Cole,7331,,,,,,,,7331,7331,"2017-12-28 18:27:46","2017-12-28 18:28:03",17,0
April,Scott,7357,,,,,x,,x,3523945550,7357,"2017-12-28 20:05:31","2017-12-28 20:06:41",70,0
April,Scott,7357,x,x,,,,,,7046642138,7357,"2017-12-28 16:33:34","2017-12-28 16:34:09",35,0
April,Scott,7357,,,,,x,,,4023976100,7357,"2017-12-28 16:25:06","2017-12-28 16:26:03",57,0
April,Scott,7357,x,,,,,,,4235963556,7357,"2017-12-28 18:09:53","2017-12-28 18:10:04",11,0
April,Scott,7357,,,,,x,,x,3523945550,7357,"2017-12-28 20:04:53","2017-12-28 20:04:58",5,0
April,Scott,7357,,,,,x,,x,3523945550,7357,"2017-12-28 20:05:09","2017-12-28 20:05:20",11,0
April,Scott,7357,x,x,,,,,,7046642138,7357,"2017-12-28 16:28:12","2017-12-28 16:28:50",38,0
April,Scott,7357,,,,,x,,,4023976100,7357,"2017-12-28 18:34:05","2017-12-28 18:34:59",54,0
